{
  "info" : {
    "title" : "Product",
    "version" : "0.0.1"
  },
  "definitions" : {
    "Product" : {
      "primaryKey" : "sku",
      "required" : [ ],
      "pii" : [ ],
      "elementRangeIndex" : [ "sku" ],
      "rangeIndex" : [ ],
      "wordLexicon" : [ ],
      "properties" : {
        "sku" : {
          "datatype" : "string",
          "collation" : "http://marklogic.com/collation/codepoint"
        },
        "price" : {
          "datatype" : "decimal"
        }
      }
    }
  }
}