{
  "path-namespace" : [ {
    "prefix" : "es",
    "namespace-uri" : "http://marklogic.com/entity-services"
  } ],
  "range-element-index" : [ {
    "collation" : "http://marklogic.com/collation/codepoint",
    "invalid-values" : "reject",
    "localname" : "sku",
    "namespace-uri" : null,
    "range-value-positions" : false,
    "scalar-type" : "string"
  }, {
    "collation" : "http://marklogic.com/collation/codepoint",
    "invalid-values" : "reject",
    "localname" : "id",
    "namespace-uri" : null,
    "range-value-positions" : false,
    "scalar-type" : "string"
  }, {
    "collation" : "http://marklogic.com/collation/codepoint",
    "invalid-values" : "reject",
    "localname" : "orderId",
    "namespace-uri" : null,
    "range-value-positions" : false,
    "scalar-type" : "string"
  }, {
    "collation" : "http://marklogic.com/collation/en",
    "invalid-values" : "reject",
    "localname" : "customerId",
    "namespace-uri" : null,
    "range-value-positions" : false,
    "scalar-type" : "int"
  } ],
  "database-name" : "%%mlFinalDbName%%"
}
